…
  There is a binary version available but the source version is later:
        binary source needs_compilation
admiral  1.0.2  1.4.1             FALSE

Running ADSL creation script...

Inputs loaded.
dm: 306 rows
suppdm: 1197 rows
ex: 591 rows
ds: 850 rows
ae: 1191 rows
vs: 29643 rows

# A tibble: 850 × 13
   STUDYID   DOMAIN USUBJID DSSEQ DSSPID DSTERM DSDECOD DSCAT VISITNUM VISIT DSDTC DSSTDTC
   <chr>     <chr>  <chr>   <int> <chr>  <chr>  <chr>   <chr>    <dbl> <chr> <chr> <chr>  
 1 CDISCPIL… DS     01-701…     1 <NA>   RANDO… RANDOM… PROT…        3 BASE… 2014… 2014-0…
 2 CDISCPIL… DS     01-701…     2 <NA>   PROTO… COMPLE… DISP…       13 WEEK… 2014… 2014-0…
 3 CDISCPIL… DS     01-701…     3 <NA>   FINAL… FINAL … OTHE…       13 WEEK… 2014… 2014-0…
 4 CDISCPIL… DS     01-701…     1 <NA>   RANDO… RANDOM… PROT…        3 BASE… 2012… 2012-0…
 5 CDISCPIL… DS     01-701…     2 24     ADVER… ADVERS… DISP…        5 WEEK… 2012… 2012-0…
 6 CDISCPIL… DS     01-701…     3 <NA>   FINAL… FINAL … OTHE…        5 WEEK… 2012… 2012-0…
 7 CDISCPIL… DS     01-701…     4 <NA>   FINAL… FINAL … OTHE…      201 RETR… 2013… 2013-0…
 8 CDISCPIL… DS     01-701…     1 <NA>   RANDO… RANDOM… PROT…        3 BASE… 2013… 2013-0…
 9 CDISCPIL… DS     01-701…     2 <NA>   PROTO… COMPLE… DISP…       13 WEEK… 2014… 2014-0…
10 CDISCPIL… DS     01-701…     3 <NA>   FINAL… FINAL … OTHE…       13 WEEK… 2014… 2014-0…
# ℹ 840 more rows
# ℹ 1 more variable: DSSTDY <dbl>
# ℹ Use `print(n = ...)` to see more rows
…
